Inferencia estadística
…
Los archivos contenían datos idénticos, excepto que la mitad de los archivos indicaban que la persona era un hombre y la otra mitad que era una mujer.

Los archivos fueron asignados aleatoriamente entre los supervisores.

Datos observados

Se recolectaron datos del sexo asociado al archivo y la decisión de promoción tomada por el supervisor.

Los datos están disponibles en el paquete de datos de Çetinkaya-Rundel y Hardin (2024).

pacman::p_load(openintro)

sex_discrimination

# A tibble: 48 × 2
   sex   decision
   <fct> <fct>   
 1 male  promoted
 2 male  promoted
 3 male  promoted
 4 male  promoted
 5 male  promoted
 6 male  promoted
 7 male  promoted
 8 male  promoted
 9 male  promoted
10 male  promoted
# ℹ 38 more rows
…
Primero, escribimos una función que simula una asignación aleatoria de archivos.

my_simulate <- function(i) {
    sim <- tibble(
        sex = c(rep("female", 24), rep("male", 24)),
        decision = sample(options, size = 48, replace = TRUE)
    )

    return(sim)
}

my_simulate(1)

# A tibble: 48 × 2
   sex    decision    
   <chr>  <chr>       
 1 female not promoted
 2 female promoted    
 3 female promoted    
 4 female promoted    
 5 female promoted    
 6 female promoted    
 7 female promoted    
 8 female not promoted
 9 female not promoted
10 female not promoted
# ℹ 38 more rows
…
Para cada uno de los \(k\) experimentos, purrr::map() va a guardar en la variable sim una tabla con los resultados de la simulación.

k <- 100

simulations <- tibble(
    k = 1:k
    ) |>
    mutate(
        sim = map(k, my_simulate)
    )

simulations

# A tibble: 100 × 2
       k sim              
   <int> <list>           
 1     1 <tibble [48 × 2]>
 2     2 <tibble [48 × 2]>
 3     3 <tibble [48 × 2]>
 4     4 <tibble [48 × 2]>
 5     5 <tibble [48 × 2]>
 6     6 <tibble [48 × 2]>
 7     7 <tibble [48 × 2]>
 8     8 <tibble [48 × 2]>
 9     9 <tibble [48 × 2]>
10    10 <tibble [48 × 2]>
# ℹ 90 more rows
Simulación de 100 aleatorizaciones

La columna sim es un objeto de tipo list que contiene las tablas con los resultados de cada simulación.

Los objetos list son muy versátiles en R y nos permiten guardar diferentes tipos de datos en una sola variable.

En este caso, es como si hubiéramos escrito:

sim = list(my_simulate(1), my_simulate(2), ..., my_simulate(100))

Podemos acceder a los resultados de la primera simulación con la siguiente notación:

simulations$sim[[1]]

# A tibble: 48 × 2
   sex    decision    
   <chr>  <chr>       
 1 female not promoted
 2 female promoted    
 3 female not promoted
 4 female not promoted
 5 female promoted    
 6 female promoted    
 7 female promoted    
 8 female promoted    
 9 female promoted    
10 female not promoted
# ℹ 38 more rows
…
simulations

# A tibble: 100 × 4
       k females_promoted males_promoted     tau
   <int>            <dbl>          <dbl>   <dbl>
 1     1            0.542          0.333 -0.208 
 2     2            0.417          0.542  0.125 
 3     3            0.417          0.208 -0.208 
 4     4            0.417          0.5    0.0833
 5     5            0.625          0.458 -0.167 
 6     6            0.458          0.542  0.0833
 7     7            0.458          0.625  0.167 
 8     8            0.542          0.542  0     
 9     9            0.458          0.542  0.0833
10    10            0.583          0.5   -0.0833
# ℹ 90 more rows
…
