Regresión lineal
…
En particular usó, sex == "Female" como variable independiente.

Esto nos permite interpretar el coeficiente de sexo como el efecto diferencial de ser mujer en el ingreso, todo lo demás constante.

Discriminación por género

Vale la pena que retomemos el ejemplo de la Clase 2 sobre la discriminación por género.

Cargamos los datos del experimento que explora si existe discriminación por género en la decisión de promoción para gerente de banco en Estados Unidos.

pacman::p_load(openintro)

sex_discrimination

# A tibble: 48 × 2
   sex   decision
   <fct> <fct>   
 1 male  promoted
 2 male  promoted
 3 male  promoted
 4 male  promoted
 5 male  promoted
 6 male  promoted
 7 male  promoted
 8 male  promoted
 9 male  promoted
10 male  promoted
# ℹ 38 more rows
…
