R y el Tidyverse
…
Ahora, vamos a trabajar con un conjunto de datos del mundo real.

nycflights13 es un paquete de datos que contiene información sobre todos los vuelos que salieron de los aeropuertos de Nueva York en 2013.

Los datos provienen del Bureau of Transportation Statistics de los Estados Unidos y podemos ir a la documentación con ?flights.

Cargamos el paquete con pacman:

pacman::p_load(nycflights13)

nyflights13

flights

# A tibble: 336,776 × 19
    year month   day dep_time sched_dep_time dep_delay arr_time sched_arr_time
   <int> <int> <int>    <int>          <int>     <dbl>    <int>          <int>
 1  2013     1     1      517            515         2      830            819
 2  2013     1     1      533            529         4      850            830
 3  2013     1     1      542            540         2      923            850
 4  2013     1     1      544            545        -1     1004           1022
 5  2013     1     1      554            600        -6      812            837
 6  2013     1     1      554            558        -4      740            728
 7  2013     1     1      555            600        -5      913            854
 8  2013     1     1      557            600        -3      709            723
 9  2013     1     1      557            600        -3      838            846
10  2013     1     1      558            600        -2      753            745
# ℹ 336,766 more rows
# ℹ 11 more variables: arr_delay <dbl>, carrier <chr>, flight <int>,
#   tailnum <chr>, origin <chr>, dest <chr>, air_time <dbl>, distance <dbl>,
#   hour <dbl>, minute <dbl>, time_hour <dttm>
…
Anidación de funciones con el pipe |>

Ejemplo 1 Imagina que queremos encontrar el vuelo más rápido al aeropueto de Houston IAH.

Necesitarás combinar las funciones filter(), mutate(), select() y arrange().

Solución 1. 

flights |>
    filter(dest == "IAH") |>
    mutate(speed = distance / air_time * 60) |> 
    select(year:day, dep_time, carrier, flight, speed) |>
    arrange(desc(speed))

# A tibble: 7,198 × 7
    year month   day dep_time carrier flight speed
   <int> <int> <int>    <int> <chr>    <int> <dbl>
 1  2013     7     9      707 UA         226  522.
 2  2013     8    27     1850 UA        1128  521.
 3  2013     8    28      902 UA        1711  519.
 4  2013     8    28     2122 UA        1022  519.
 5  2013     6    11     1628 UA        1178  515.
 6  2013     8    27     1017 UA         333  515.
 7  2013     8    27     1205 UA        1421  515.
 8  2013     8    27     1758 UA         302  515.
 9  2013     9    27      521 UA         252  515.
10  2013     8    28      625 UA         559  515.
# ℹ 7,188 more rows
…
arrange(
  select(
    mutate(
      filter(
        flights, 
        dest == "IAH"
      ),
      speed = distance / air_time * 60
    ),
    year:day, dep_time, carrier, flight, speed
  ),
  desc(speed)
)

# A tibble: 7,198 × 7
    year month   day dep_time carrier flight speed
   <int> <int> <int>    <int> <chr>    <int> <dbl>
 1  2013     7     9      707 UA         226  522.
 2  2013     8    27     1850 UA        1128  521.
 3  2013     8    28      902 UA        1711  519.
 4  2013     8    28     2122 UA        1022  519.
 5  2013     6    11     1628 UA        1178  515.
 6  2013     8    27     1017 UA         333  515.
 7  2013     8    27     1205 UA        1421  515.
 8  2013     8    27     1758 UA         302  515.
 9  2013     9    27      521 UA         252  515.
10  2013     8    28      625 UA         559  515.
# ℹ 7,188 more rows

Anidar funciones con el pipe |>

Otra opción es guardar los pasos intermedios en objetos:

Solución 3. 

flights1 <- filter(flights, dest == "IAH")
flights2 <- mutate(flights1, speed = distance / air_time * 60)
flights3 <- select(flights2, year:day, dep_time, carrier, flight, speed)
arrange(flights3, desc(speed))

# A tibble: 7,198 × 7
    year month   day dep_time carrier flight speed
   <int> <int> <int>    <int> <chr>    <int> <dbl>
 1  2013     7     9      707 UA         226  522.
 2  2013     8    27     1850 UA        1128  521.
 3  2013     8    28      902 UA        1711  519.
 4  2013     8    28     2122 UA        1022  519.
 5  2013     6    11     1628 UA        1178  515.
 6  2013     8    27     1017 UA         333  515.
 7  2013     8    27     1205 UA        1421  515.
 8  2013     8    27     1758 UA         302  515.
 9  2013     9    27      521 UA         252  515.
10  2013     8    28      625 UA         559  515.
# ℹ 7,188 more rows
…
Grupos y agregaciones

Hasta ahora, hemos visto verbos que trabajan con filas y columnas. Ahora veremos que dplyr se vuelve más poderoso cuando agregamos la posibilidad de trabajar con grupos.

Las funciones que discutiremos son group_by() y summarize().

group_by()

Usamos group_by() para dividir el conjunto de datos en grupos con un significado.

flights |> 
  group_by(month)

# A tibble: 336,776 × 19
# Groups:   month [12]
    year month   day dep_time sched_dep_time dep_delay arr_time sched_arr_time
   <int> <int> <int>    <int>          <int>     <dbl>    <int>          <int>
 1  2013     1     1      517            515         2      830            819
 2  2013     1     1      533            529         4      850            830
 3  2013     1     1      542            540         2      923            850
 4  2013     1     1      544            545        -1     1004           1022
 5  2013     1     1      554            600        -6      812            837
 6  2013     1     1      554            558        -4      740            728
 7  2013     1     1      555            600        -5      913            854
 8  2013     1     1      557            600        -3      709            723
 9  2013     1     1      557            600        -3      838            846
10  2013     1     1      558            600        -2      753            745
# ℹ 336,766 more rows
# ℹ 11 more variables: arr_delay <dbl>, carrier <chr>, flight <int>,
#   tailnum <chr>, origin <chr>, dest <chr>, air_time <dbl>, distance <dbl>,
#   hour <dbl>, minute <dbl>, time_hour <dttm>
…
alternativamente summarise()

Las funciones slice_

Considera la siguiente operación:

flights |> 
  group_by(dest) |> 
  slice_max(arr_delay, n = 1) |>
  relocate(dest, arr_delay)

# A tibble: 108 × 19
# Groups:   dest [105]
   dest  arr_delay  year month   day dep_time sched_dep_time dep_delay arr_time
   <chr>     <dbl> <int> <int> <int>    <int>          <int>     <dbl>    <int>
 1 ABQ         153  2013     7    22     2145           2007        98      132
 2 ACK         221  2013     7    23     1139            800       219     1250
 3 ALB         328  2013     1    25      123           2000       323      229
 4 ANC          39  2013     8    17     1740           1625        75     2042
 5 ATL         895  2013     7    22     2257            759       898      121
 6 AUS         349  2013     7    10     2056           1505       351     2347
 7 AVL         228  2013     8    13     1156            832       204     1417
 8 BDL         266  2013     2    21     1728           1316       252     1839
 9 BGR         238  2013    12     1     1504           1056       248     1628
10 BHM         291  2013     4    10       25           1900       325      136
# ℹ 98 more rows
# ℹ 10 more variables: sched_arr_time <int>, carrier <chr>, flight <int>,
#   tailnum <chr>, origin <chr>, air_time <dbl>, distance <dbl>, hour <dbl>,
#   minute <dbl>, time_hour <dttm>
…
Otra solución es usar la función pivot_longer() para convertir las columnas en filas, y despues calcular el promedio agrupando por variable.

Solución 5 (pivot_longer). 

flights_long <- flights |>
    pivot_longer(
        cols = where(is.numeric),
        names_to = "variable",
        values_to = "value"
    )

flights_long

# A tibble: 4,714,864 × 7
   carrier tailnum origin dest  time_hour           variable       value
   <chr>   <chr>   <chr>  <chr> <dttm>              <chr>          <dbl>
 1 UA      N14228  EWR    IAH   2013-01-01 05:00:00 year            2013
 2 UA      N14228  EWR    IAH   2013-01-01 05:00:00 month              1
 3 UA      N14228  EWR    IAH   2013-01-01 05:00:00 day                1
 4 UA      N14228  EWR    IAH   2013-01-01 05:00:00 dep_time         517
 5 UA      N14228  EWR    IAH   2013-01-01 05:00:00 sched_dep_time   515
 6 UA      N14228  EWR    IAH   2013-01-01 05:00:00 dep_delay          2
 7 UA      N14228  EWR    IAH   2013-01-01 05:00:00 arr_time         830
 8 UA      N14228  EWR    IAH   2013-01-01 05:00:00 sched_arr_time   819
 9 UA      N14228  EWR    IAH   2013-01-01 05:00:00 arr_delay         11
10 UA      N14228  EWR    IAH   2013-01-01 05:00:00 flight          1545
# ℹ 4,714,854 more rows
…
